{
  "_type_" : "rt.Deployment",
  "name" : "teneo",
  "fragment" : "",
  "crossReferences" : [ {
    "refObject" : {
      "_type_" : "etl.Project",
      "name" : "blueprint",
      "fragment" : ""
    },
    "fragment" : "",
    "feature" : "project"
  }, {
    "refObject" : {
      "_type_" : "rt.JdbcConnection",
      "name" : "teneo",
      "fragment" : ""
    },
    "fragment" : "",
    "feature" : "connection"
  }, {
    "refObject" : {
      "_type_" : "rt.SoftwareSystem",
      "name" : "teneo",
      "fragment" : ""
    },
    "fragment" : "",
    "feature" : "softwareSystem"
  } ]
}