{
  "_type_" : "rt.JdbcConnection",
  "name" : "teneo",
  "fragment" : "",
  "crossReferences" : [ {
    "refObject" : {
      "_type_" : "etl.Project",
      "name" : "blueprint",
      "fragment" : ""
    },
    "fragment" : "",
    "feature" : "project"
  } ]
}