{
  "_type_" : "rt.SoftwareSystem",
  "name" : "teneo",
  "fragment" : "",
  "crossReferences" : [ {
    "refObject" : {
      "_type_" : "etl.Project",
      "name" : "blueprint",
      "fragment" : ""
    },
    "fragment" : "",
    "feature" : "project"
  }, {
    "refObject" : {
      "_type_" : "rel.Scheme",
      "name" : "public_at_teneo",
      "fragment" : ""
    },
    "fragment" : "",
    "feature" : "scheme"
  }, {
    "refObject" : {
      "_type_" : "rt.Deployment",
      "name" : "teneo",
      "fragment" : ""
    },
    "fragment" : "",
    "feature" : "defaultDeployment"
  } ]
}