{
  "_type_" : "rt.TransformationDeployment",
  "name" : "autogenerated_tr_tr_yandex_clickHouse",
  "fragment" : "",
  "crossReferences" : [ {
    "refObject" : {
      "_type_" : "etl.Project",
      "name" : "cloud",
      "fragment" : ""
    },
    "fragment" : "",
    "feature" : "project"
  }, {
    "refObject" : {
      "_type_" : "rt.LivyServer",
      "name" : "s3-livy",
      "fragment" : ""
    },
    "fragment" : "",
    "feature" : "livyServer"
  }, {
    "refObject" : {
      "_type_" : "etl.Transformation",
      "name" : "tr_yandex_clickHouse",
      "fragment" : ""
    },
    "fragment" : "",
    "feature" : "transformation"
  } ]
}