{
  "_type_" : "rt.TransformationDeployment",
  "name" : "autogenerated_tr_tr_load_datagram_transformations",
  "fragment" : "",
  "crossReferences" : [ {
    "refObject" : {
      "_type_" : "etl.Project",
      "name" : "blueprint",
      "fragment" : ""
    },
    "fragment" : "",
    "feature" : "project"
  }, {
    "refObject" : {
      "_type_" : "rt.LivyServer",
      "name" : "bd-livy",
      "fragment" : ""
    },
    "fragment" : "",
    "feature" : "livyServer"
  }, {
    "refObject" : {
      "_type_" : "etl.Transformation",
      "name" : "tr_load_datagram_transformations",
      "fragment" : ""
    },
    "fragment" : "",
    "feature" : "transformation"
  }, {
    "refObject" : {
      "_type_" : "rt.Deployment",
      "name" : "teneo",
      "fragment" : ""
    },
    "fragment" : "",
    "feature" : "deployments"
  } ]
}