{
  "_type_" : "etl.Transformation",
  "name" : "aws_tr_load_datagram_transformations",
  "fragment" : "",
  "crossReferences" : [ {
    "refObject" : {
      "_type_" : "etl.Project",
      "name" : "blueprint",
      "fragment" : ""
    },
    "fragment" : "",
    "feature" : "project"
  }, {
    "refObject" : {
      "_type_" : "etl.JdbcContext",
      "name" : "teneo",
      "fragment" : ""
    },
    "fragment" : "@sources.0",
    "feature" : "context"
  }, {
    "refObject" : {
      "_type_" : "etl.JdbcContext",
      "name" : "teneo",
      "fragment" : ""
    },
    "fragment" : "@sources.1",
    "feature" : "context"
  }, {
    "refObject" : {
      "_type_" : "etl.JdbcContext",
      "name" : "teneo",
      "fragment" : ""
    },
    "fragment" : "@sources.2",
    "feature" : "context"
  } ]
}