{
  "_type_" : "etl.Transformation",
  "name" : "tr_yandex_cloud_S3",
  "fragment" : "",
  "crossReferences" : [ {
    "refObject" : {
      "_type_" : "etl.Project",
      "name" : "cloud",
      "fragment" : ""
    },
    "fragment" : "",
    "feature" : "project"
  } ]
}