{
  "_type_" : "rt.WorkflowDeployment",
  "name" : "autogenerated_wf_wf_salary_analysis",
  "fragment" : "",
  "crossReferences" : [ {
    "refObject" : {
      "_type_" : "rt.Oozie",
      "name" : "bd-oozie",
      "fragment" : ""
    },
    "fragment" : "",
    "feature" : "oozie"
  } ]
}